Diseño de muestras complejas y modelos de regresión
…
Continuando con el análisis de datos ponderados, creamos una tabla de contingencia para las variables sexo y educación.

#Data no ponderada
Enoe_2025_T2%>%
  group_by(sex, cs_p13_1)%>%
  summarise(Freq= n())

`summarise()` has grouped output by 'sex'. You can override using the `.groups`
argument.

# A tibble: 25 × 3
# Groups:   sex [3]
     sex cs_p13_1  Freq
   <int>    <int> <int>
 1     1        0  5570
 2     1        1  7125
 3     1        2 48411
 4     1        3 47327
 5     1        4 38374
 6     1        5   305
 7     1        6  3011
 8     1        7 33567
 9     1        8  2379
10     1        9   418
# ℹ 15 more rows
…
Obtenemos las proporciones de niveles de educación por sexo:

prop_edu_sex<- educa_sex%>%
  as.data.frame()%>%
  group_by(sex)%>%
  mutate(n_sex=sum(Freq), Prop_educa=Freq/sum(Freq))%>%
  ungroup
prop_edu_sex

# A tibble: 22 × 5
   cs_p13_1 sex       Freq    n_sex Prop_educa
   <fct>    <fct>    <dbl>    <dbl>      <dbl>
 1 0        1      2003542 58758103    0.0341 
 2 1        1      2273821 58758103    0.0387 
 3 2        1     16045579 58758103    0.273  
 4 3        1     14771561 58758103    0.251  
 5 4        1     11726053 58758103    0.200  
 6 5        1        66848 58758103    0.00114
 7 6        1       976599 58758103    0.0166 
 8 7        1      9947585 58758103    0.169  
 9 8        1       742697 58758103    0.0126 
10 9        1       109866 58758103    0.00187
# ℹ 12 more rows
…
